%YAML 1.1
%TAG !u! tag:unity3d.com,2011:
--- !u!114 &11400000
MonoBehaviour:
  m_ObjectHideFlags: 0
  m_CorrespondingSourceObject: {fileID: 0}
  m_PrefabInstance: {fileID: 0}
  m_PrefabAsset: {fileID: 0}
  m_GameObject: {fileID: 0}
  m_Enabled: 1
  m_EditorHideFlags: 0
  m_Script: {fileID: 11500000, guid: b2686e09ec7aef44bad2843e4416f057, type: 3}
  m_Name: SSSSettings_Skin_Profile 7
  m_EditorClassIdentifier: 
  profile:
    name: Profile 7
    scatteringDistance: {r: 0.5, g: 0.5, b: 0.5, a: 1}
    transmissionTint: {r: 1, g: 1, b: 1, a: 1}
    texturingMode: 0
    transmissionMode: 0
    thicknessRemap: {x: 0, y: 5}
    worldScale: 1
    ior: 1.4
    hash: 1076458385
  m_Version: 1
  profiles: []
